{
  "servers": [
    {
      "host": "52.42.106.85",
      "username": "ubuntu",
      "pem": "~/.ssh/ir.pem",
      "env": {}
    }
  ],
  "setupMongo": true,
  "appName": "CallMeMaybe",
  "app": "/Users/iliareingold/projects/meteor/CallMeMaybe",
  "env": {
    "PORT": 80,
    "ROOT_URL": "https://app.callmemaybe.io"
  },
  "deployCheckWaitTime": 15,
  "enableUploadProgressBar": true,
  "ssl": {
    "certificate": "./fullchain.pem",
    "key": "./privkey.pem",
    "port": 443
  }
}
